,이름,제목,설명,시작점,끝점,소요시간,거리,난이도,재미,컨디션,사진경로,other1,other2,other3
1,용두암 ~ 탑동광장 ,제주문화를 볼 수 있는 원도심로드,원도심로드는 말그대로 도심 속에 위치해 있는 로드이다. 탑동광장은 예전부터 제주사람들의 다양한 문화  취미 생활을 알아볼 수 있는 광장이다. 운동을 하거나  산책을 하고  길에 걸터앉아 대화를 나누거나  시원한 바닷소리를 들으며 맥주를 즐기기도 한다. 인근 위치해있는 동문시장에 들려 만원짜리 회 한접시를 사와 먹기도 한다. 날씨가 따뜻해질 쯤에는 버스킹 공연  플리마켓 등 크고 작은 문화 행사들을 접할 수 있다.,용두암,탑동광장,편도 7분,2.00Km,2,3,4,null,탑동광장,제주동문재래시장,아라리오뮤지엄
2,삼양해변 ~ 함덕해변 ,조금 투박해도 괜찮아 나만 알고 싶은 동쪽 로드,바다 쪽에 오순도순 모여있는 집들은 제주의 자연스러움이 묻어있다. 검정색 돌담  흙을 바른 흙집  바다 동네에 어울리는 푸른색 기와들은 집집마다 제주스러움을 보여준다.큰길에는 쭉 뻗어 있는 고른 도로  조금 더 깊이 골목으로 들어서면 오돌토돌 투박한 길은 라이딩을 하기 매력적이다.핸들을 잡은 손바닥  바닥을 구르는 발끝  덜덜거리는 어깨  길마다 다른 진동으로 라이딩을 할 때  색다름을 느낄 수 있는 곳.삼양에 위치한 검은모래해변은 다른 백사장과 달리 검정색 모래가 있는 곳이다. 바로 옆에는 용천수가 나오는 담수풀장이 있어 여름에는 피서지로 많은 사람들이 찾는다.,삼양해변,함덕해변,편도 35분,9.49Km,3,4,3,null,낚고락고,정주항,함덕 서우봉
3,성산일출봉 ~ 섭지코지 ,볼거리 먹거리가 많은 갓성비로드,제주의 일출로 유명한 성산일출봉에서 시작하는 코스로 쾌적한 도로컨디션과 제주의 장관을 맛볼 수 있는 로드이다.알짜배기라는 말이 어울리는 성산은 유명관광지인만큼 다양한 즐길거리  볼거리  먹을거리들이 빼곡히 들어서있다. 제주스러운 음식들과 제주스러운 자연을 보고 즐길 수 있는 코스. 컨셉 숙소 성산플레이스캠프  동양 최대 규모의 해양수족관 한화아쿠아플라넷 제주  인스타 감성이 넘치는 드르쿰다 in 성산 등 젊은 층을 타깃으로 한 즐길거리들이 뜨고있다. 가는 곳곳마다 제주 일출 명소 성산일출봉은 마치 나를 따라오는 것처럼 어딜가든 보이고  한적한 오조포구에 들어서 바라보는 조용한 바다는 모든 게 제자리를 찾아가듯 생각에 잠기게 만드는 곳 중 하나이다. 성산에서의 추억은 거리마다 피어난다.,성산일출봉,섭지코지,편도 23분,6.29Km,2,5,4,null,성산일출봉,드르쿰다 in 성산,한화 아쿠아플라넷
4,모슬포항 ~ 수월봉 ,제주의 파도가 만들어낸 절경,제주도 하면 바다  바다의 파도가 만들어낸 절벽은 장관이 따로 없다.해안을 따라 달리는 족족 탄성을 자아내는 이 코스는 제주의 위엄을 보여주는 로드.자연이 만들어낸 제주를 더 가까이 만나보고 싶다면 추천하는 수월봉 코스.,모슬포항,수월봉,편도 55분,14.79Km,2,3,5,null,수월봉,자구네포구,대정오일장
5,수월봉 ~ 해거름전망대 ,풍차해안도로가 만들어낸 색다른 제주의 감성,제주 서쪽 해안을 따라 줄지어 해안풍력단지가 조성되어 거센 제주의 바다 바람을 맞으며 돌아가는 풍차를 만날 수 있다. 풍차를 따라 바다를 가로지르는 해안산책로가 마련되어있어 하얀 풍차를 더 가까이 바라볼 수 있다. 풍차를 따라 달리다 보면 제주에 이런 곳이 있다고? 라는 의문이 생길만큼 이국적인 풍경을 자아낸다. 바다를 가로지르는 풍차들과 그 아래로 펼쳐지는 푸른빛 바다  일몰시간이면 풍차사이로 드리우는 노을 빛을 조명삼아 인생샷을 찍어보자. 이국적인 신창풍차해안도로를 시원하게 달리며 제주의 색다른 감성에 빠져보자,수월봉,해거름전망대,편도 49분,13.20Km,2,5,4,null,신창풍차해안도로,판포포구,디자인 AB
6,우도 선착장 ~ 우도 선착장 ,제주 안의 또 다른 제주  우도,끼만 돌담과 푸른 보리  노란 유채꽃이 널려있는 제주 안의 또 다른 제주  우도. 제주의 자연환경과 전통문화  현대가 어우러져 있는 우도는 많은 관광객들이 찾는 관광명소이다. 우도 둘레길을 따라 전동킥보드 라이딩을 하면 가는 곳  모든 곳이 아름다운 볼거리가 풍성한 관광지이다.,우도 선착장,우도 선착장,편도 46분,12.36Km,4,5,3,null,검멀레해수욕장,비양도,독립서점)밤수지맨드라미
7,해거름전망대 ~ 금능해변 ,제주 유일의 선인장 자생지 월령 로드,제주 유일의 선인장 자생지 월령마을에서는 뱀이나 쥐가 들어오는 것을 방지하기 위해 집의 경계인 돌담에 심었던게 군락을 이뤄 선인장마을로 조성되었다. 까만 현무암 사이로 자라나있는 손바닥선인장  여름이면 노란 꽃과 자색 열매를 맺는데 그 모습이 꽤나 귀엽고 신기하다. 양 옆으로 펼쳐져있는 초록색 선인장  그 너머로 보이는 푸르른 바다가 조화를 이룬다. 더 깊숙히 들어가면 선인장 산책로가 있는데 한적하고 조용한 마을길이기때문에 잠시 킥보드를 세워두고 산책로를 걸어보자,해거름전망대,금능해변,편도 19분,5.15Km,2,4,5,null,제주한림공원,카페 울트라마린,금능해수욕장
8,중문해변 ~ 산방산 ,제주 해안절경의 위엄을 보여주는 로드,바가지로 마실 수 있는 깨끗한 샘물이 솟아나는 절벽이라는 의미의 박수기정은 제주의 거센 파도의 위엄과 멋진 해안절경을 보여주는 곳이다. 대평포구에서 박수기정의 웅장함에서 빠져나와 제주 서남부 지역을 달리다보면  안덕면 사계리의 랜드마크인 산방산을 볼 수 있는데 한점의 수묵화를 보는 듯  그림같은 경치를 자아낸다. 봄에는 유채꽃이 만발하고  꽃내음에 취해 달리다 산방산을 배경으로 유채꽃과 사진을 찍어보자.  제주의 봄을 한껏 만끽할 수 있는 곳으로 꽃놀이하기 좋은 로드,중문해변,산방산,편도 48분,12.87Km,3,4,3,null,산방산,건강과 성 박물관,박수기정
9,곽지해변 ~ 애월항 ,마음이 편안해지는 거리,한적한 도로와 조용한 마을길은 마음이 편안해지게 만든다. 북적거리는 원도심을 벗어나 나만의 길을 달리는 듯한 느낌 쭉 달리다보면 어느새 유명한 카페들이 나온다. 카페를 하나 골라 여유롭게 커피 한 잔 하는건 어떠세요?,곽지해변,애월항,편도 12분,3.44Km,2,3,3,null,카페 '레이지펌프',한담해변,기프트샵 '한담story'
10,애월항 ~ 이호해변 ,떠오르는 제주  애월해안도로,애월해안도로는 제주해안도로에서 인기가 많은 코스로 라이딩하기 적합한 코스이다. 인기가 많은 만큼 제주의 맛집  쉴수있는 카페 등이 많이 분포되어있다. 이브이패스 전동킥보드로 차로는 갈 수 없는 깊숙한 곳까지 가서 제주를 만끽하자.,애월항,이호해변,편도 56분,14.98Km,2,4,3,null,알작지 해변,구엄리 돌염전(소금빌레),이호테우해변
11,이호해변 ~ 용두암 ,목마등대를 보며 달려보자,이호테우해변을 지나 파란선을 따라 달리다보면 마주하는 이호의 명소  목마등대 차로는 갈 수 없는 등대 앞까지 킥보드를 타고 달려보자.도로 컨디션이 좋고  쉬운 로드에 처음 반하고  도두 무지개해안도로에 두번 반한다. 그리고 비밀명소인 활주로길로 들어서서 세번 반한다. 비행기가 이륙할 때 활주로 길을 시원하게 달려보자,이호해변,용두암,편도 28분,7.52Km,2,4,4,null,도두무지개해안도로,도두추억의거리,용두암
12,협재해변 ~ 곽지해변 ,섬속의 섬  바다와 섬의 조화,물이 맑고 투명하기로 소문난 협재해수욕장.  맑은 바다와 하얀모래가 만들어낸 아름다운 해안선 멀리 보이는 비양도의 조화는 매혹적이 전망을 보여주는 로드. 해안가에서 한라산 방향으로 조금만 올라가면 제주의 핫플레이스들이 모여있다.,협재해변,곽지해변,편도 38분,10.27Km,2,4,4,null,카페 '명월국민학교',맛집 '외쿡식당',협재해수욕장
13,태흥포구 ~ 남원해수풀장 ,뱃사람들이 들려주는 제주의 바다이야기,소요시간 14분 밖에 걸리지 않는 이 코스는 크고 작은 포구들로 이루어져있는 로드이다.코스 사이마다 정박되어있는 배  저 멀리 수평선에 떠다니는 배들을 보면제주의 바다의 모습을 더 많이  가까이 보고 느낄 수 있는 코스.,태흥포구,남원해수풀장,편도 14분,3.82Km,3,2,3,null,제주코코몽에코파크,남원큰엉해안경승지,남원해수풀장
14,김녕해변 ~ 월정해변 ,초보라이더 취향저격 로드,어디가 끝인지 알 수 없는 수평선을 보기 전에 파란선을 보고 따라가보자. 최상의 도로컨디션으로 초보자도 쉽고 빠르게 라이딩 할 수 있는 곳  해안가를 따라가보면 김녕해변부터 월정해변까지 눈에 담을 수 있는 로드이다. 하얀 조가비들이 파도에 부숴져 눈처럼 하얀 백사장을 만들어냈고  코발트 빛 바다는 라이딩을 하는 내내 눈에 담고 싶을 만큼 아름답다. 김녕해변의 파도소리에 시원함을 느끼고  킥보드 바람에 시원함을 느낄때 쯤 제주도에 꼭 가봐야 할 곳 ‘월정해변’이 나타난다. 제주여행필수코스라고 할만큼 인기가 많은 이곳  카페거리가 있어 꺼진 배를 채우고  목을 축이기 좋은 해변,김녕해변,월정해변,편도 17분,4.72Km,2,3,5,null,김녕항,월정리 카페거리,제주밭담테마공원
15,함덕해변 ~ 김녕해변 ,함덕-북촌-김녕으로 이어지는 해녀추천 로드,시원한 여름 밤 향기에 매료되는 이 곳  함덕해수욕장이다. 여름에는 함덕잔디광장에서 플리마켓 ‘멘도롱장’이 열린다. 직접 만든 수공예 물건들을 조금씩 가지고 나와 판매를 하는데 구경하는 재미가 쏠쏠하다. 해변 바로 옆으로 우뚝 솟아있는 서우봉에 올라가면 함덕 바다를 한눈에 담을 수 있다. 시끌벅적한 함덕을 벗어나면 한적한 라이딩을 할 수 있고  왼편으로는 하얀 백사장 위로 펼쳐지는 에매랄드 빛 바다. 김녕 부근에는 바다와 한평생을 한 해녀들이 있다. 놀러온 사람들에게는 그저 아름답기만한 바다이지만 해녀들에게 바다는 그녀들의 일터이자 삶이다. 해녀들의 물질  숨비소리를 보고 들으며 제주의 바다를 만날 수 있는 로드,함덕해변,김녕해변,편도 39분,10.55Km,3,4,4,null,김녕금속공예벽화마을,김녕요트투어,김녕해수욕장
16,월정해변 ~ 성산일출봉 ,해안도로를 따라 우리를 반겨주는 수국꽃 담장,수국이 필 무렵이면  도로에 있는 담장마다 수국이 수국수국  코스 한켠에 킥보드를 세워두고 사진을 찍으면 무조건 인생샷. 꽃 담장 너머로 보이는 푸른 바다는 그야말로 장관. 난이도 별 2개로 누구든 쉽게 달릴 수 있는 로드. 전동킥보드타고 종달리 수국꽃길을 달려보자.,월정해변,성산일출봉,편도 83분,22.31Km,2,4,4,null,종달리수국꽃길,맛집 '알로하도',하도리 조형물
17,쇠소깍 ~ 새연교 ,서귀포 핫플로드,쇠소깍부터 새연교 사이에는 서귀포 유명 관광지들이 밀집해있는 지역으로  달리면 달릴수록 제주여행의 묘미를 느낄 수 있는 로드이다. 매일매일 서귀포 시민들의 소박한 일상을 엿볼 수 있는 서귀포매일올레시장에 들려 출출해진 배를 채우고  화가 이중섭이 실제거주했던 초가를 중심으로 조성된 ‘이중섭거리’가 있다. 이중섭거리에는 이중섭의 삽화가 들어간 기념품이나 각종 수공예품  편집샵들이 있으며  인기 있는 맛집들도 즐비해있는 거리이다. ‘새로운 인연을 만들어가는 다리’ 로 유명한 새연교는 서귀포항과 새섬을 연결하는 다리이다. 새연교는 서귀포 관광 랜드마크로 차량출입은 불가하며  새섬산책로  벤치 등이 설치되 있어 산책하기 좋은 곳이다.,쇠소깍,새연교,편도 36분,9.82Km,3,5,2,null,쇠소깍,이중섭거리,새연교
18,섭지코지 ~ 표선해변 ,자인이 만든 제주,킥보드의 속도는 다양하다. 쭉 뻗은 도로를 시원하게 달리고  볼거리들이 많다면 속도를 조금 줄여보고  좀 지치면 잠시 멈춰서도 좋다. 이 로드는 다른 곳보다 속도를 줄이고 천천히 달려보자. 제주의 바람과 파도가 만들어낸 해안절경은 아무리 눈에 담고 담아도 부족하다. 장관을 이룬다는 말이 적절한 표현인듯하다. 천천히 내려 돌아오던 길에 만난 작은 마을길은 아기자기한 벽화들이 그려져있다. 한 점 한 점 구경하다보면 눈 앞에 펼쳐지는 작은 포구는 좀 전에 만났던 장엄한 해안절경과는 다르게 소소하지만  매력적이다. 비싼 돈을 주지 않아도 가질 수 있는 자연이 주는 선물  자연이 만든 제주,섭지코지,표선해변,편도 71분,19.19Km,3,4,3,null,김영갑 갤러리,신천리벽화마을,표선해변
19,제주민속촌 ~ 태흥포구 ,제주의 옛모습,보명! 먹으멍! 놀멍! 도르라! 제주의 옛 정취를 느낄 수 있는 곳. 초보자가 라이딩하기 좋은 코스로  뻥 뚫려있는 제주의 바다를 만끽할 수 있는 로드. 로드 사이사이마다 있는 선착장에서 제주의 정취를 한껏 느낄 수 있다.,제주민속촌,태흥포구,편도 44분,11.82Km,3,3,2,null,소울빌리지,제주민속촌,표선민속오일시장
20,남원해수풀장 ~ 쇠소깍 ,초록빛 숲길과 푸른빛 바다의 조화,"""구불구불한 숲길을 지나야하는 이 로드는 라이딩 난이도가 높은 만큼 아름다운 경치를 마주할 수있는 로드이다. 우거진 나무 사이로 등장하는 바다는 힘든 라이딩코스를 잊게 만든다. 숲길 사이로 조금씩 보이는 바다는 다음 로드의 모습을 기대하게 만든다. 동산을 내려와 땀을 식히며 바닷바람을 쐬보자. 한산한 마을길로 들어서면 와-라는 감탄사가 절로 나온다.  제주만의 돌담  흙내음이 진동을 하고 감귤밭 창고 외벽에는 넝쿨들이 멋스럽게 뻗어있다.  제주 시골길의 정을 온몸으로 느낄 수 있는 로드. 조금 더 가면 효도천의 담수와 해수가 만나 생긴 깊은 웅덩이 쇠소깍이 나온다.  쇠소깍에선 킥보드를 잠시 세워두고 투명카약  수상자전거 등 다양한 체험을 하며 쇠소깍 곳곳을 탐험하고  여유롭게 산책로를 거닐어보자.",남원해수풀장,쇠소깍,편도 51분,13.69Km,4,4,3,null,카페 서연의 집,쇠소깍,위미항
21,천지연폭포 ~ 월드컵경기장 ,오로지 나만의 속도로  혼 킥 로드,혼 킥(혼자 킥보드여행)하기 좋은 로드. 가끔 혼자 생각에 잠기고 싶은 날  혼자 여행하고 싶은날 라이딩 하기 좋은 코스. 조용히 달리다 만나는 천지연 폭포를 바라보면 한없이 생각에 잠긴다. 떠드는 소리  웃는 소리가 폭포 소리에 묻히고  차갑게 얼굴로 튀는 작은 폭포 조각들은 옆에 누가 없더라도 외롭지 않게 만든다. 나보다 남을 더 많이 생각하는 거 말고  오로지 나만  나만의 여유를 가지고  나만의 페이스로 달려보자.,천지연폭포,월드컵경기장,편도 24분,6.48Km,3,3,2,null,천지연폭포,서귀포 예술의 전당,서귀포 월드컵경기장
22,월드컵경기장 ~ 중문해변 ,욜로족 강력추천 로드,월드컵경기장에서 해안도로를 따라 내려오면 큰 호랑이가 웅크리고 앉은 모습과 같다는 '범섬'을 볼 수 있다. 범섬을 배경삼아햐는 최적의 라이딩 코스  강정마을을 지나면 많은 관광객들이 찾는 중문색달해변이 나온다. 같이 즐기며 놀기 좋은 로드  중문색달해변은 파도가 뻐르고 높아 서핑족들에게 인기있는 코스. 중문색달해변 바로 옆에 있는 중문관광단지에는 다양한 즐길거리  볼거리  맛집들이 즐비해있는 제주의 랜드마크이다.,월드컵경기장,중문해변,편도 47분,12.81Km,3,4,3,null,약천사,카페 '벙커하우스',중문색달해변
23,산방산 ~ 송악산 ,커플라이딩 추천 로드,커플로 제주도 여행을 왔다? 라이딩을 즐기며 데이트를 하고 싶다? 그러면 이만한 로드가 따로 없다. 한적한 동네에 사방으로 펼쳐지는 아름다운 비경. 앞으로는 바다요  뒤로는 산이로다. 아무대나 눈을 둬도 볼 곳이 많은 이곳. 아무리 볼게 많더라도 전동킥보드 라이딩 중엔 전방을 주시하세요!,산방산,송악산,편도 25분,6.69Km,2,4,5,null,송악산,형제해안도로,산이물
24,송악산 ~ 모슬포항 ,제주의 역사가 스며들어있는 다크로드,제주의 삼다중 하나인 '바람'을 온몸으로 체험할 수 있는 곳  바닷가에 불끈 솟은 송악산둘레길에 오르면 형제섬과 가파도  마라도까지 볼 수 있는 곳이다. 현재는 관광지로 조성되어 많은 사람들이 오고 가는 곳이지만  과거 일제강점기 일본군의 군사기지로 사용되었던 제주의 아픔이 스며들어있는 장소이다. 또 송악산  단산  모슬봉  산방산 아래쪽 뜰이라는 의미를 가진 알뜨르 비행장 역시 일제의 군사시설이였다. 넓은 들판 곳곳에 격납고가 있으며 그대로 보존해 당시 무고한 제주도민들의 희생과 아픔을 기억하기 위해 원형의 모습대로 보존되어있다. 제주의 아픈 역사를 되돌아볼 수 있는 다크로드,송악산,모슬포항,편도 23분,6.17Km,1,3,5,null,알뜨르비행장,M1971,송악산
25,제주항 ~ 삼양해변 ,김만덕의 얼이 살아숨쉬는 로드,원도심로드 바로 옆에 있는 로드로 복잡한 도심속에서 벗어나 제주의 얼이 살아숨쉬는 코스이다.제주의 소소한 동네가 있는 그대로 보여지는 코스로 시내권과 가까워 제주사람들의 생활을 엿볼 수 있는 곳.,제주항,삼양해변,편도 24분,6.47Km,4,2,3,null,김만덕객주,국립제주박물관,사라봉
26,상 추자도 ~  상 추자도 ,null,null,(상)추자도,(상)추자도,편도 분,Km,3,0,3,null,null,null,null
27,하 추자도 ~  하 추자도 ,null,null,(하)추자도,(하)추자도,편도 분,Km,3,0,3,null,null,null,null
28,가파도 ~ 가파도 ,푸른 바다와 청보리 물결의 가파도,겨울이 지나 봄이면 가파도는 푸른색 청보리로 물든다. 봄에 한달간  제주스러운 다양한 축제들이 열린다. 가파도 코스는 한적한 섬 속에서 찾는 힐링 공간으로 힐링을 느끼고싶을때 추천하는 라이딩코스,가파도,가파도,편도 분,Km,3,2,3,null,null,null,null
29,마라도 ~ 마라도 ,동화같은 섬  마라도,전동킥보드를 타고 마라도의 둘레기를 달리며 대표 명소를 찾아보자. 작고 소박한 마라도 성당을 시작으로 섬 끝에 있는 최남단기념비까지 동쪽파도의 위엄을 보여주는 수직절벽과 아기자기  독특한 모양에 건축물을 보면 마치 동화에서나 볼 법한 모습들이 마라도에서 펼쳐진다,마라도,마라도,편도 분,Km,3,1,3,null,null,null,null
30,비양도 ~ 비양도 ,요즘 뜨는 백패킹 핫플레이스  비양도,제주의 서쪽 금능해변 혹은 협재 해변에 가면 멀고도 가까워 보이는 섬 하나가 있다. 멀리서 보아도 아름답지만  직접 찾아가봐도 아름다운 이 곳은 비양도최근 들어서 백패킹족들이 많이 방문해 캠핑을 즐기는 곳배낭 하나 둘러메고 전동킥보드 라이딩을 하는 건 어떨까? 섬길을 따라 천천히 라이딩을 하고  조금 지치면 잔디 위에 텐트를 치고 여유를 느껴보자,비양도,비양도,편도 분,Km,3,4,3,null,null,null,null
